{
    "id": "com.modxvm.xvm.tooltips",
    "name": "XVM Tooltips",
    "description": "XVM Tooltips module",

    "version": "XVM_VERSION",
    "dependencies": ["com.modxvm.xvm","com.modxvm.xvm.limits"],

    "url": "https://modxvm.com/",
    "url_update": "https://modxvm.com/",

    "wot_version_min": "WOT_VERSION",
    "wot_version_exactmatch": false,

    "features": ["python"]
}
